<?xml version="1.0" encoding="utf-8"?>
<!-- Generator: Adobe Illustrator 26.0.3, SVG Export Plug-In . SVG Version: 6.00 Build 0)  -->
<svg version="1.1" id="Layer_1" xmlns="http://www.w3.org/2000/svg" xmlns:xlink="http://www.w3.org/1999/xlink" x="0px" y="0px"
	 viewBox="0 0 116.41 26.61" style="enable-background:new 0 0 116.41 26.61;" xml:space="preserve">
<style type="text/css">
	.st0{fill-rule:evenodd;clip-rule:evenodd;fill:#F68C21;}
	.st1{enable-background:new    ;}
	.st2{fill:#FFFFFF;}
	.st3{fill:#F68C22;}
	.st4{display:none;}
	.st5{display:inline;}
	.st6{font-family:'CenturyGothic-Bold';}
	.st7{font-size:14.6656px;}
	.st8{display:inline;fill:#F68C22;}
</style>
<g id="Layer_1_00000079480367077642440900000002903717284451196590_">
	<g>
		<path class="st0" d="M15.72,13.03c0.58,0.76,0.44,1.86-0.33,2.44c-0.53,0.4-1.21,0.46-1.78,0.2c-0.82-1.6-2.47-2.7-4.37-2.7
			c-2.72,0-4.92,2.24-4.92,5c0,2.2,1.4,4.07,3.35,4.74L6.9,24.33l2.34-1.36l0,0c2.71,0,4.91-2.22,4.92-4.97
			c0.38-0.49,1.02-0.75,1.67-0.64c0.94,0.17,1.57,1.07,1.4,2.02c-0.34,1.9-1.35,3.57-2.78,4.76c-1.41,1.17-3.21,1.88-5.17,1.88
			c-2.23,0-4.25-0.9-5.72-2.37c-1.46-1.46-2.37-3.48-2.37-5.72c0-2.23,0.9-4.25,2.37-5.72c1.46-1.46,3.48-2.37,5.72-2.37
			c1.28,0,2.49,0.3,3.58,0.84C13.99,11.24,14.97,12.05,15.72,13.03z"/>
		<path class="st0" d="M5.03,3.5c0-0.89,0.72-1.6,1.6-1.6c0.89,0,1.6,0.72,1.6,1.6l0.03,8c0,0.89-0.72,1.6-1.6,1.6
			c-0.89,0-1.6-0.72-1.6-1.6L5.03,3.5z"/>
		<path class="st0" d="M8.69,2.45c0-0.89,0.72-1.6,1.6-1.6c0.89,0,1.6,0.72,1.6,1.6L11.92,11c0,0.89-0.72,1.6-1.6,1.6
			c-0.89,0-1.6-0.72-1.6-1.6L8.69,2.45z"/>
		<path class="st0" d="M1.35,6.21c0-0.89,0.72-1.6,1.6-1.6c0.89,0,1.6,0.72,1.6,1.6l0.03,9.21c0,0.89-0.72,1.6-1.6,1.6
			c-0.89,0-1.6-0.72-1.6-1.6L1.35,6.21z"/>
	</g>
	<g class="st1">
		<path class="st2" d="M22.88,11.22h1.95l2.44,7.35l2.46-7.35h1.95l1.77,10.53h-1.94l-1.13-6.65l-2.24,6.65h-1.77l-2.22-6.65
			l-1.16,6.65h-1.96L22.88,11.22z"/>
		<path class="st2" d="M38.5,13.76c0.73,0,1.43,0.18,2.07,0.55c0.65,0.37,1.15,0.87,1.51,1.5c0.36,0.63,0.54,1.31,0.54,2.04
			c0,0.73-0.18,1.42-0.55,2.06c-0.37,0.64-0.86,1.14-1.49,1.5c-0.63,0.36-1.32,0.54-2.08,0.54c-1.12,0-2.07-0.4-2.86-1.19
			c-0.79-0.79-1.19-1.76-1.19-2.9c0-1.22,0.45-2.23,1.34-3.04C36.59,14.11,37.49,13.76,38.5,13.76z M38.54,15.6
			c-0.61,0-1.11,0.21-1.52,0.63c-0.4,0.42-0.61,0.96-0.61,1.62c0,0.68,0.2,1.23,0.6,1.65c0.4,0.42,0.91,0.63,1.52,0.63
			c0.61,0,1.12-0.21,1.53-0.64c0.41-0.42,0.61-0.97,0.61-1.64s-0.2-1.21-0.6-1.63C39.67,15.81,39.16,15.6,38.54,15.6z"/>
		<path class="st2" d="M44.23,13.96h1.96v0.8c0.44-0.37,0.84-0.63,1.2-0.78c0.36-0.15,0.73-0.22,1.1-0.22
			c0.77,0,1.43,0.27,1.97,0.81c0.45,0.46,0.68,1.14,0.68,2.03v5.15h-1.93v-3.41c0-0.93-0.04-1.55-0.12-1.85
			c-0.08-0.3-0.23-0.54-0.44-0.7c-0.21-0.16-0.46-0.24-0.77-0.24c-0.4,0-0.73,0.13-1.02,0.4s-0.48,0.63-0.59,1.1
			c-0.06,0.24-0.09,0.77-0.09,1.58v3.13h-1.96V13.96z"/>
		<path class="st2" d="M60.84,18.42h-6.28c0.09,0.55,0.33,0.99,0.73,1.32c0.39,0.33,0.9,0.49,1.51,0.49c0.73,0,1.36-0.25,1.88-0.77
			l1.65,0.77c-0.41,0.58-0.9,1.01-1.48,1.29c-0.57,0.28-1.25,0.42-2.04,0.42c-1.22,0-2.22-0.38-2.99-1.16
			c-0.77-0.77-1.15-1.74-1.15-2.9c0-1.19,0.38-2.18,1.15-2.96s1.73-1.18,2.88-1.18c1.23,0,2.22,0.39,2.99,1.18
			c0.77,0.79,1.15,1.82,1.15,3.11L60.84,18.42z M58.88,16.88c-0.13-0.43-0.38-0.79-0.76-1.06c-0.38-0.27-0.82-0.41-1.32-0.41
			c-0.55,0-1.02,0.15-1.43,0.46c-0.26,0.19-0.5,0.53-0.72,1.01H58.88z"/>
		<path class="st2" d="M61.56,13.96h2l2.02,4.89l2.23-4.89h2L64.93,24.6h-2.02l1.6-3.43L61.56,13.96z"/>
		<path class="st2" d="M76.27,11.22h1.95l2.44,7.35l2.46-7.35h1.95l1.77,10.53h-1.94l-1.13-6.65l-2.24,6.65h-1.77l-2.22-6.65
			l-1.16,6.65h-1.96L76.27,11.22z"/>
		<path class="st2" d="M88.99,10.75c0.34,0,0.64,0.12,0.88,0.37s0.37,0.55,0.37,0.9c0,0.35-0.12,0.65-0.36,0.89
			c-0.24,0.25-0.53,0.37-0.87,0.37c-0.35,0-0.64-0.13-0.89-0.38c-0.25-0.25-0.37-0.56-0.37-0.91c0-0.34,0.12-0.64,0.36-0.88
			C88.36,10.87,88.65,10.75,88.99,10.75z M88.01,13.96h1.96v7.79h-1.96V13.96z"/>
		<path class="st2" d="M91.74,13.96h1.96v0.8c0.44-0.37,0.84-0.63,1.21-0.78c0.36-0.15,0.73-0.22,1.1-0.22
			c0.77,0,1.43,0.27,1.97,0.81c0.45,0.46,0.68,1.14,0.68,2.03v5.15h-1.93v-3.41c0-0.93-0.04-1.55-0.12-1.85
			c-0.08-0.3-0.23-0.54-0.44-0.7c-0.21-0.16-0.46-0.24-0.77-0.24c-0.4,0-0.74,0.13-1.02,0.4s-0.48,0.63-0.59,1.1
			c-0.06,0.24-0.09,0.77-0.09,1.58v3.13h-1.96V13.96z"/>
		<path class="st2" d="M106.29,10.95h1.96v10.8h-1.96v-0.82c-0.38,0.36-0.76,0.62-1.15,0.78c-0.38,0.16-0.8,0.24-1.25,0.24
			c-1.01,0-1.88-0.39-2.61-1.17c-0.73-0.78-1.1-1.75-1.1-2.91c0-1.2,0.35-2.19,1.07-2.96c0.71-0.77,1.57-1.15,2.59-1.15
			c0.47,0,0.91,0.09,1.32,0.27c0.41,0.18,0.79,0.44,1.14,0.79V10.95z M104.24,15.56c-0.6,0-1.11,0.21-1.51,0.64
			c-0.4,0.43-0.6,0.97-0.6,1.64c0,0.67,0.2,1.23,0.61,1.66c0.41,0.43,0.91,0.65,1.5,0.65c0.61,0,1.12-0.21,1.53-0.64
			c0.4-0.43,0.61-0.99,0.61-1.68c0-0.68-0.2-1.23-0.61-1.65S104.86,15.56,104.24,15.56z"/>
		<path class="st2" d="M115,15.05l-1.21,1.21c-0.49-0.49-0.94-0.73-1.34-0.73c-0.22,0-0.39,0.05-0.52,0.14
			c-0.12,0.09-0.19,0.21-0.19,0.35c0,0.11,0.04,0.2,0.12,0.29c0.08,0.09,0.27,0.21,0.58,0.36l0.72,0.36
			c0.75,0.37,1.27,0.75,1.55,1.14c0.28,0.39,0.42,0.84,0.42,1.36c0,0.69-0.25,1.27-0.76,1.73c-0.51,0.46-1.19,0.69-2.04,0.69
			c-1.14,0-2.04-0.44-2.72-1.33l1.2-1.31c0.23,0.27,0.5,0.48,0.81,0.65c0.31,0.17,0.58,0.25,0.82,0.25c0.26,0,0.47-0.06,0.62-0.19
			c0.16-0.12,0.24-0.27,0.24-0.43c0-0.3-0.28-0.59-0.85-0.88l-0.66-0.33c-1.26-0.63-1.89-1.43-1.89-2.38c0-0.62,0.24-1.14,0.71-1.58
			c0.48-0.44,1.08-0.66,1.82-0.66c0.51,0,0.98,0.11,1.43,0.33C114.31,14.31,114.69,14.63,115,15.05z"/>
	</g>
	<path class="st3" d="M10.25,15.53l1.28,0.06l0.52-0.66l-4.44-0.19L7.09,15.4l1.76,0.08c0.35,0.12,0.63,0.39,0.78,0.73L7.56,16.1
		l-0.52,0.66l2.69,0.12c-0.1,0.65-0.68,1.15-1.36,1.12l-1.15-0.05l-0.04,0.87l2.34,2.99l1.08,0.05l-2.21-2.99H8.33
		c1.15,0.05,2.14-0.81,2.25-1.95l0.89,0.04L12,16.3l-1.45-0.06C10.49,15.98,10.39,15.74,10.25,15.53z"/>
</g>
<g id="Layer_2_00000072261841497537096650000015275754614306731958_" class="st4">
	<g class="st5">
		<path class="st0" d="M15.72,13.03c0.58,0.76,0.44,1.86-0.33,2.44c-0.53,0.4-1.21,0.46-1.78,0.2c-0.82-1.6-2.47-2.7-4.37-2.7
			c-2.72,0-4.92,2.24-4.92,5c0,2.2,1.4,4.07,3.35,4.74L6.9,24.33l2.34-1.36l0,0c2.71,0,4.91-2.22,4.92-4.97
			c0.38-0.49,1.02-0.75,1.67-0.64c0.94,0.17,1.57,1.07,1.4,2.02c-0.34,1.9-1.35,3.57-2.78,4.76c-1.41,1.17-3.21,1.88-5.17,1.88
			c-2.23,0-4.25-0.9-5.72-2.37c-1.46-1.46-2.37-3.48-2.37-5.72c0-2.23,0.9-4.25,2.37-5.72c1.46-1.46,3.48-2.37,5.72-2.37
			c1.28,0,2.49,0.3,3.58,0.84C13.99,11.24,14.97,12.05,15.72,13.03z"/>
		<path class="st0" d="M5.03,3.5c0-0.89,0.72-1.6,1.6-1.6c0.89,0,1.6,0.72,1.6,1.6l0.03,8c0,0.89-0.72,1.6-1.6,1.6
			c-0.89,0-1.6-0.72-1.6-1.6L5.03,3.5z"/>
		<path class="st0" d="M8.69,2.45c0-0.89,0.72-1.6,1.6-1.6c0.89,0,1.6,0.72,1.6,1.6L11.92,11c0,0.89-0.72,1.6-1.6,1.6
			c-0.89,0-1.6-0.72-1.6-1.6L8.69,2.45z"/>
		<path class="st0" d="M1.35,6.21c0-0.89,0.72-1.6,1.6-1.6c0.89,0,1.6,0.72,1.6,1.6l0.03,9.21c0,0.89-0.72,1.6-1.6,1.6
			c-0.89,0-1.6-0.72-1.6-1.6L1.35,6.21z"/>
	</g>
	<text transform="matrix(1 0 0 1 20.6579 21.7506)" class="st5 st6 st7">Money Minds</text>
	<path class="st8" d="M10.25,15.53l1.28,0.06l0.52-0.66l-4.44-0.19L7.09,15.4l1.76,0.08c0.35,0.12,0.63,0.39,0.78,0.73L7.56,16.1
		l-0.52,0.66l2.69,0.12c-0.1,0.65-0.68,1.15-1.36,1.12l-1.15-0.05l-0.04,0.87l2.34,2.99l1.08,0.05l-2.21-2.99H8.33
		c1.15,0.05,2.14-0.81,2.25-1.95l0.89,0.04L12,16.3l-1.45-0.06C10.49,15.98,10.39,15.74,10.25,15.53z"/>
</g>
</svg>
